{
    "data": [
        {
            "id": 1,
            "name": "NOMBRE DEL MODULO - STRD.",
            "area": "SAF",
            "redirect": "https:\/\/www.idrd.gov.co\/SIM\/...\/",
            "image": "https:\/\/www.idrd.gov.co\/SIM\/icono.jpg",
            "status": true,
            "missionary": false,
            "compatible": false,
            "access": [
                {
                    "id": "24fa65d",
                    "name": "Crear Persona",
                    "description": "Agrega a una persona solo con sus datos caracteristicos",
                    "module_id": 1,
                    "permission": [
                        {
                            "user_id": 1046,
                            "activity_id": 157,
                            "status": true,
                            "status_int": 1,
                            "created_at": "2020-11-16 12:23:23"
                        }
                    ]
                },
                {
                    "id": "57be65d",
                    "...": "..."
                }
            ],
            "encoded": "a%3A68%3A%7Bi...",
            "created_at": "2021-09-12 16:45:34",
            "updated_at": "2021-09-12 16:45:34"
        }
    ],
    "links": {
        "first": "https:\/\/sim.idrd.gov.co\/base-ldap\/public\/api\/my-modules?page=1",
        "last": "https:\/\/sim.idrd.gov.co\/base-ldap\/public\/api\/my-modules?page=30",
        "prev": null,
        "next": "https:\/\/sim.idrd.gov.co\/base-ldap\/public\/api\/my-modules?page=2"
    },
    "meta": {
        "current_page": 1,
        "from": 1,
        "last_page": 30,
        "path": "https:\/\/sim.idrd.gov.co\/base-ldap\/public\/api\/my-modules",
        "per_page": "1",
        "to": 1,
        "total": 30
    },
    "code": 200,
    "details": null,
    "requested_at": "2021-09-21T15:15:11-05:00"
}
